[gd_scene load_steps=4 format=2]

[ext_resource path="res://scripts/player.gd" type="Script" id=1]
[ext_resource path="res://assets/icon.png" type="Texture" id=2]

[sub_resource type="RectangleShape2D" id=1]
extents = Vector2( 30, 30 )

[node name="Player" type="KinematicBody2D"]
position = Vector2( 327.417, 125.173 )
script = ExtResource( 1 )
__meta__ = {
"_edit_group_": true
}
gravity = 40000

[node name="Sprite" type="Sprite" parent="."]
texture = ExtResource( 2 )

[node name="CollisionShape2D" type="CollisionShape2D" parent="."]
shape = SubResource( 1 )

