; Engine configuration file.
; It's best edited using the editor UI and not directly,
; since the parameters that go here are not all obvious.
;
; Format:
;   [section] ; section goes between []
;   param=value ; assign values to parameters

config_version=4

_global_script_classes=[  ]
_global_script_class_icons={

}

[application]

config/name="Space Golf"
run/main_scene="res://level1.tscn"
config/icon="res://assets/icon.png"

[autoload]

Global="*res://scripts/global.gd"

[input]

ui_action={
"deadzone": 0.5,
"events": [ Object(InputEventKey,"resource_local_to_scene":false,"resource_name":"","device":0,"alt":false,"shift":false,"control":false,"meta":false,"command":false,"pressed":false,"scancode":88,"unicode":0,"echo":false,"script":null)
 ]
}

[rendering]

environment/default_environment="res://default_env.tres"
